1 thru  1 = 1 0
2 thru  2 = 2 0.1
3 thru  9 = 9 0
10 thru 10 = 10 1
11 thru 11 = 11 0.1
12 thru 13 = 13 0.3
14 thru 14 = 14 0.4
15 thru 17 = 17 0.5
18 thru 18 = 18 0.6
19 thru 20 = 20 0.3
21 thru 22 = 22 0.6
23 thru 23 = 23 1
24 thru 24 = 24 0.8
25 thru 25 = 25 1
26 thru 29 = 29 0.8
30 thru 30 = 30 1
31 thru 31 = 31 0.8
32 thru 32 = 32 0.7
33 thru 33 = 33 0
34 thru 34 = 34 0.8
35 thru 35 = 35 1
36 thru 36 = 36 0.8
37 thru 37 = 37 1
38 thru 38 = 38 0.8
39 thru 39 = 39 1
40 thru 42 = 42 1
43 thru 43 = 43 0.8
44 thru 44 = 44 1
45 thru 45 = 45 0.3
