11100:11100:0:0
11200:11200:0.1:0.1
12100:13300:0:0
14100:14100:1:1
14200:14200:0.1:0.1
21100:21200:0.3:0.3
21300:21300:0.4:0.4
22100:22300:0.5:0.5
23100:23100:0.6:0.6
24100:24200:0.3:0.3
24300:24400:0.6:0.6
31100:31100:1:1
31200:31200:0.8:0.8
31300:31300:1:1
32100:32400:0.8:0.8
33100:33100:1:1
33200:33200:0.8:0.8
33300:33300:0.7:0.7
33400:33400:0:0
33500:33500:0.8:0.8
41100:41100:1:1
41200:41200:0.8:0.8
42100:42100:1:1
42200:42200:0.8:0.8
42300:42300:1:1
51100:52100:1:1
52200:52200:0.8:0.8
52300:52300:1:1
